Containers----------------->
cass1 172.23.99.89
cass2 172.23.99.35

spark1 spark://172.23.99.230:7077
spark2 ..........................





Websites--------------------->
zepplin http://44227922.uqcloud.net/#/

phpcass http://s4422792-phpcass.uqcloud.net/





Group Members-------------------->
Zijie Mei 44227922
Yin Peng 44148009
Lianyu Zhao 44131104
Xinzhe Yang 44250014
Samuel Zhi Ren Yong 44260929